<svg width="113" height="35" viewBox="0 0 113 35" fill="none" xmlns="http://www.w3.org/2000/svg">
<g opacity="0.5">
<path d="M21.6524 0.176322C21.6524 0.390428 21.4635 0.453401 20.5189 0.566751C20.1411 0.617128 19.7758 0.70529 19.7003 0.755668C19.6373 0.806045 19.4106 0.881612 19.1965 0.93199C18.8061 1.02015 18.6423 1.08312 17.1814 1.78841C15.3426 2.65743 12.4459 4.62217 10.8338 6.09572C9.22168 7.55668 6.72797 10.1511 6.14863 10.9824C5.9849 11.2091 5.7582 11.5113 5.63226 11.6373C5.50631 11.7758 5.25442 12.1159 5.0655 12.3929C4.87659 12.6826 4.68767 12.9345 4.64989 12.9723C4.59951 13.0101 4.43578 13.262 4.27205 13.539C4.10833 13.8161 3.932 14.068 3.89422 14.1058C3.74309 14.2191 3.18893 15.2393 2.44586 16.7506C2.05543 17.5441 1.69019 18.2997 1.61462 18.4131C1.55165 18.539 1.50127 18.7028 1.50127 18.7909C1.50127 18.8791 1.42571 19.1058 1.32495 19.2947C1.22419 19.4836 1.11084 19.8111 1.06047 20.0378C1.01009 20.2771 0.921928 20.5416 0.858956 20.6549C0.39296 21.5239 -0.236762 27.0781 0.0906935 27.4937C0.153666 27.5819 0.254421 27.9723 0.304799 28.3753C0.342583 28.7783 0.468527 29.2569 0.569283 29.4458C0.657444 29.6348 0.745605 29.8615 0.745605 29.9622C0.745605 30.2897 1.9043 31.864 2.60959 32.4937C3.37785 33.1738 4.82621 33.9547 5.5315 34.0806C5.77079 34.131 6.03528 34.2065 6.09825 34.2695C6.32495 34.4333 9.19649 34.5214 10.3804 34.3955C11.7909 34.2317 13.5038 33.9547 13.6801 33.8413C13.7431 33.8035 14.1083 33.7028 14.4862 33.6398C14.864 33.5642 15.5315 33.4131 15.9849 33.2997C16.4383 33.199 17.1184 33.0227 17.5214 32.9345C17.9119 32.8463 18.2771 32.7456 18.3527 32.7078C18.4156 32.6574 18.7683 32.5693 19.1461 32.5063C19.5239 32.4307 20.2544 32.2796 20.7708 32.1788C21.2872 32.0655 22.0554 31.9144 22.471 31.8514C22.8867 31.7884 23.4786 31.6751 23.7935 31.5995C24.6121 31.398 28.8816 31.2972 29.6499 31.461C30.0025 31.5365 30.5441 31.6625 30.8716 31.7254C31.199 31.801 31.5642 31.9018 31.6902 31.9773C31.8161 32.0403 32.2192 32.2292 32.5844 32.3804C32.937 32.5441 33.2393 32.7204 33.2393 32.7708C33.2393 32.8338 33.3023 32.8715 33.3779 32.8715C33.6297 32.8715 34.6247 33.7531 35.0907 34.3955L35.5441 35L36.3124 34.3073C37.7859 32.9723 39.1713 32.6196 42.0302 32.8715C42.8867 32.9345 43.6927 33.0605 43.8187 33.1234C43.9446 33.199 44.1839 33.2494 44.3476 33.2494C44.5114 33.2494 44.801 33.3375 45.0025 33.4383C45.1915 33.539 45.4559 33.6272 45.5693 33.6272C45.6826 33.6272 46.1738 33.8287 46.6398 34.068C47.1184 34.3073 47.5592 34.5088 47.6096 34.5088C47.937 34.5088 47.5844 34.1688 46.3753 33.2494C45.6197 32.6952 44.9648 32.204 44.8892 32.1411C44.8262 32.0907 44.5365 31.9018 44.2595 31.738C43.9824 31.5743 43.7305 31.398 43.6927 31.3476C43.6171 31.2469 41.4131 30.1008 41.2872 30.1008C41.2368 30.1008 41.0353 30.0378 40.8338 29.9496C40.2544 29.7103 39.4106 29.471 38.403 29.2569C37.194 29.005 32.9496 28.8917 31.9799 29.0932C31.602 29.1688 30.8338 29.2821 30.2796 29.3451C28.869 29.5088 26.5894 29.9496 24.6751 30.4282C24.2217 30.529 23.5416 30.6927 23.1637 30.7683C22.7859 30.8564 22.4207 30.9572 22.3451 30.995C22.2821 31.0453 21.9673 31.1209 21.6524 31.1587C21.3375 31.2091 20.9723 31.2972 20.8338 31.3602C20.6952 31.4232 20.3048 31.5365 19.9522 31.5995C18.9824 31.7884 18.1008 31.9899 17.6852 32.1159C17.1058 32.2922 15.0529 32.6196 13.0252 32.8589C12.131 32.9597 11.5894 32.9597 10.4559 32.8086C9.66248 32.6952 8.95719 32.5693 8.88163 32.5063C8.80606 32.4559 8.57936 32.3678 8.37785 32.3174C7.60959 32.1285 6.16122 30.995 5.74561 30.2519C5.46853 29.7733 5.06551 28.9043 4.90178 28.4635C4.68767 27.8589 4.59951 25.2771 4.75064 24.4962C5.09069 22.9093 5.16626 22.5945 5.27961 22.2418C5.34258 22.0277 5.51891 21.461 5.67004 20.995C5.82117 20.529 5.99749 20.1133 6.04787 20.0756C6.11084 20.0378 6.16122 19.9244 6.16122 19.8111C6.16122 19.6977 6.36273 19.194 6.60203 18.6902C6.84132 18.1864 7.04284 17.7204 7.04284 17.6574C7.04284 17.5819 7.08062 17.5063 7.14359 17.4811C7.19397 17.4559 7.37029 17.1537 7.53402 16.8136C7.91185 16.0327 8.95719 14.3199 9.70027 13.2242C10.4685 12.1033 10.8716 11.5365 10.9471 11.461C10.9849 11.4232 11.325 10.995 11.7028 10.5164C12.6726 9.26952 13.0378 8.8539 15.1033 6.80101C17.0554 4.83627 17.5592 4.39547 18.6045 3.67758C20.6197 2.29219 21.7784 1.78841 23.1763 1.67506C23.8564 1.62469 23.9068 1.63728 24.3476 2.07809C24.6247 2.35516 24.801 2.64484 24.801 2.83375C24.801 3.23678 24.3854 3.65239 23.9824 3.65239C23.6297 3.65239 22.8363 4.11839 22.5214 4.49622C22.1436 4.96222 21.9043 5.57934 21.9043 6.12091C21.9043 6.5995 21.9547 6.68766 22.3325 6.92695L22.7733 7.19144L23.2645 6.93955C24.7884 6.15869 25.9849 3.69018 25.5693 2.19144C25.3804 1.47355 24.6499 0.654912 24.1083 0.554156C23.8438 0.503778 23.6423 0.390428 23.6046 0.239295C23.529 0.0377834 23.3904 0 22.5844 0C21.8539 0 21.6524 0.0377834 21.6524 0.176322V0.176322ZM75.3048 0.579345C75.0655 0.617128 74.6877 0.717884 74.461 0.81864C74.2469 0.919395 73.9824 1.00756 73.869 1.00756C73.7557 1.00756 73.5668 1.05793 73.4408 1.1335C73.3275 1.19647 72.9496 1.3728 72.597 1.51134C70.8338 2.25441 67.9496 3.99244 66.3502 5.28967C64.7129 6.62469 64.1587 7.11587 62.8363 8.43829C60.8842 10.3904 59.9522 11.4736 58.5164 13.4131C57.8489 14.3073 57.2569 15.1008 57.194 15.1763C57.1436 15.2393 56.9547 15.529 56.791 15.806C56.6272 16.0831 56.4509 16.335 56.4131 16.3728C56.2242 16.5239 54.7758 19.0806 54.1713 20.3401C53.8061 21.0957 53.4408 21.8262 53.3779 21.9395C53.3149 22.0655 53.2645 22.2292 53.2645 22.3048C53.2645 22.3804 53.1889 22.6196 53.0882 22.8338C52.3199 24.5718 51.9547 26.7128 52.0428 28.9043C52.1184 30.403 52.1814 30.7053 52.7859 31.9647C53.0882 32.6071 53.9068 33.5013 54.461 33.7909C55.6071 34.3955 55.8086 34.4458 57.3325 34.4332C58.1386 34.4207 58.8816 34.3577 58.9698 34.2821C59.0454 34.2191 59.3224 34.1184 59.5617 34.068C59.9396 33.9798 61.0857 33.4761 62.0806 32.9219C62.9119 32.4685 64.7758 30.8438 65.733 29.7229C66.1109 29.2695 66.4887 28.8413 66.5768 28.7406C67.1688 28.1108 68.5668 25.7179 69.1335 24.3703C69.2847 24.0176 69.4484 23.6272 69.5114 23.4887C69.5743 23.3501 69.6625 23.0353 69.7129 22.796C69.7506 22.5567 69.8514 22.2796 69.927 22.1914C70.0025 22.1033 70.0529 21.335 70.0655 20.4282C70.0781 18.7406 70.0151 18.5264 69.3602 17.8589C68.9824 17.4685 68.1134 17.33 67.1562 17.5063C66.6902 17.5819 66.2494 17.6952 66.1738 17.7456C66.1109 17.8086 65.9093 17.8967 65.7456 17.9471C65.2166 18.1108 63.8061 19.1436 63.0126 19.9496C62.1562 20.8186 61.7532 21.4106 61.1109 22.733C60.8716 23.2116 60.6197 23.7154 60.5567 23.8287C60.4937 23.9547 60.4433 24.1436 60.4433 24.2569C60.4433 24.3577 60.3678 24.5718 60.2922 24.7229C60.0403 25.1511 59.5114 27.3174 59.6121 27.4307C59.6499 27.4559 60.1411 27.0781 60.7204 26.5869C61.2998 26.0957 61.8287 25.6927 61.9169 25.6927C61.9925 25.6927 62.0806 25.6423 62.1058 25.5919C62.1562 25.466 63.3401 24.7481 63.6675 24.6348C63.8313 24.5844 63.9824 24.3073 64.1461 23.7783C64.9522 21.0705 66.7028 18.8917 68.063 18.8917C69.2847 18.8917 69.6247 19.8363 69.1461 21.9773C69.0705 22.3174 68.9446 22.6574 68.8816 22.7204C68.8061 22.796 68.7557 22.9597 68.7557 23.0856C68.7557 23.2116 68.6801 23.4761 68.5794 23.6524C68.4786 23.8413 68.2645 24.2695 68.1008 24.6222C67.8111 25.2645 67.131 26.461 66.9925 26.5743C66.9547 26.6121 66.6398 27.0025 66.2998 27.4559C64.9144 29.2821 62.8741 31.1335 61.5517 31.7254C60.7708 32.0781 59.7758 32.1788 58.869 31.9899C58.2519 31.864 58.0378 31.738 57.5592 31.2469C56.7784 30.4534 56.5013 29.534 56.5768 28.073C56.6272 26.9144 56.8791 25.4534 57.0554 25.2645C57.1184 25.1889 57.1688 25 57.1688 24.8237C57.1688 24.6348 57.2569 24.3325 57.3577 24.131C57.4585 23.9421 57.5466 23.6776 57.5466 23.5642C57.5466 23.4509 57.6348 23.199 57.7355 22.9975C57.8363 22.8086 57.9245 22.5819 57.9245 22.5189C57.9245 22.0151 60.0151 18.0353 61.3501 16.0076C61.4761 15.8312 61.6398 15.5542 61.7154 15.3904C61.8035 15.2393 61.9043 15.1134 61.9547 15.1134C62.0051 15.1134 62.0806 15.0126 62.1184 14.8866C62.194 14.6725 62.9874 13.5642 64.1713 12.0403C66.7532 8.72796 70.3552 5.30227 73.2897 3.37531C74.2091 2.77078 75.9219 1.88917 76.1864 1.88917C76.2998 1.88917 76.4383 1.83879 76.5139 1.76322C76.5768 1.70025 76.9799 1.61209 77.3829 1.57431C78.7053 1.44836 78.7935 1.83879 77.6222 2.61965C77.2821 2.84635 76.8917 3.13602 76.7532 3.24937C76.6146 3.36272 76.136 3.75315 75.6826 4.11839C74.0202 5.42821 72.4711 7.2796 71.5894 8.99244C70.8212 10.4912 70.6323 11.1083 70.6071 12.0655C70.5693 13.5139 71.0227 14.005 72.3829 14.005C73.0504 14.005 73.3401 13.9421 74.0328 13.5894C75.1159 13.0353 77.0303 11.1587 77.9748 9.69773C78.9446 8.22418 79.7632 6.57431 79.9144 5.79345C79.9522 5.55416 80.0403 5.28967 80.1033 5.21411C80.1663 5.15113 80.2418 4.50882 80.2796 3.79093C80.3048 3.08564 80.3678 2.45592 80.4056 2.39295C80.4433 2.32997 80.7834 2.21662 81.1486 2.12846C81.7154 2.00252 81.9925 2.01511 82.8489 2.19144C83.4156 2.30479 83.9698 2.44332 84.0957 2.5063C84.2091 2.55668 84.5114 2.69521 84.7507 2.79597C84.9899 2.90932 85.33 3.04786 85.5063 3.12343C85.859 3.28715 86.8539 3.82872 87.1436 4.03023C87.2444 4.0932 87.7859 4.44584 88.3401 4.81108C88.8942 5.16373 89.801 5.75567 90.3552 6.10831C91.5517 6.87657 92.5214 7.43073 92.6978 7.43073C92.8111 7.43073 95.1033 5.11335 95.1663 4.93703C95.1915 4.88665 94.927 4.72292 94.5995 4.55919C94.2721 4.40806 93.9194 4.23174 93.8187 4.16877C91.6776 2.84635 89.3854 1.61209 88.2141 1.1335C86.8287 0.579345 86.7532 0.566751 84.2847 0.566751C82.5214 0.566751 81.8287 0.604534 81.7028 0.717884C81.6272 0.806045 81.4509 0.881612 81.325 0.881612C81.199 0.881612 80.7834 0.982368 80.4182 1.12091L79.7507 1.3602L79.1335 0.969773C78.5542 0.604534 78.4408 0.579345 77.131 0.554156C76.3753 0.541562 75.5441 0.554156 75.3048 0.579345V0.579345ZM79.4106 3.08564C79.5114 3.47607 79.2469 5.42821 79.0831 5.59194C79.0076 5.66751 78.9572 5.81864 78.9572 5.94458C78.9572 6.52393 77.5592 9.06801 76.665 10.1134C75.6197 11.3476 74.1209 12.7204 73.8061 12.7204C73.7305 12.7204 73.6675 12.7708 73.6675 12.8338C73.6675 12.9345 72.5718 13.3501 72.2947 13.3501C72.2192 13.3501 71.9673 13.1486 71.7154 12.9093C71.0857 12.267 71.1234 11.7758 71.9925 10.0126C72.5214 8.90428 72.5718 8.84131 73.4282 7.68262C74.5114 6.23426 76.199 4.58438 77.534 3.67758C78.9698 2.69521 79.2847 2.59446 79.4106 3.08564V3.08564Z" fill="#603E94"/>
<path d="M102.887 0.86898C102.219 1.07049 101.048 1.61205 100.72 1.87654C100.632 1.9521 99.9648 2.44329 99.2343 2.98485C97.5844 4.20651 93.3149 8.42566 91.7406 10.3778C91.4761 10.7178 91.1109 11.1461 90.9471 11.3224C90.2796 12.0403 87.8993 15.34 87.2066 16.5239C87.1436 16.6498 86.7784 17.2292 86.4257 17.8211C86.0605 18.4257 85.7582 18.9546 85.7582 19.0176C85.7582 19.0806 85.6826 19.2065 85.6071 19.2947C85.5189 19.3954 85.3426 19.6599 85.2041 19.8992C85.0781 20.1385 84.7758 20.7053 84.524 21.1587C84.2847 21.6121 83.8187 22.4811 83.5038 23.0982C83.1638 23.7531 82.8237 24.2569 82.6726 24.3073C81.9925 24.5592 81.4887 24.6851 81.1738 24.6851C80.8338 24.6851 80.8212 24.6725 80.9093 24.2065C80.9597 23.9546 81.0731 23.602 81.1612 23.4257C81.4635 22.8841 81.7028 22.2418 81.791 21.7884C81.8413 21.5491 81.9421 21.2846 82.0051 21.1964C82.068 21.1083 82.131 20.4786 82.1436 19.7859C82.1562 18.6146 82.131 18.5138 81.8161 18.0856C81.5643 17.7707 81.2872 17.5818 80.796 17.4307C80.1537 17.2292 80.0655 17.2292 79.3728 17.4307C77.6222 17.9471 76.2242 18.8665 74.3098 20.7682C72.6726 22.4055 72.1688 22.9723 71.5265 23.9294C71.4257 24.0806 71.262 24.2821 71.1864 24.3828C71.0983 24.471 71.0227 24.5718 71.0227 24.6095C71.0227 24.6473 70.859 24.9118 70.6575 25.2141C70.1411 25.9697 69.1587 27.9093 69.0706 28.3501C69.0202 28.5516 68.932 28.7405 68.869 28.7783C68.8061 28.8287 68.7557 28.9672 68.7557 29.0932C68.7557 29.2317 68.6675 29.5969 68.5542 29.9244C68.4282 30.2896 68.3527 30.9697 68.3527 31.7254C68.3401 33.0856 68.5668 33.7279 69.2217 34.1939C69.7003 34.534 71.4383 34.5466 71.9043 34.2191C72.068 34.1058 72.3073 34.005 72.4333 34.005C72.5592 34.005 72.66 33.9672 72.66 33.9042C72.66 33.8539 72.9245 33.665 73.2645 33.476C73.869 33.1234 73.995 33.0226 75.5063 31.7002C76.2998 31.0075 76.6524 30.6171 77.7607 29.2821C77.9245 29.068 78.126 28.8413 78.2015 28.7531C78.2645 28.665 78.3275 28.5642 78.3275 28.5264C78.3275 28.4257 78.8816 27.6574 78.995 27.607C79.0454 27.5818 79.0831 27.4811 79.0831 27.3929C79.0831 27.2922 79.1587 27.141 79.2469 27.0529C79.335 26.9647 79.5491 26.6247 79.7129 26.2972C80.0655 25.5793 80.5441 25.3148 81.5139 25.3148C82.3073 25.3148 82.4711 25.4911 82.1688 26.0705C82.068 26.272 81.9799 26.4861 81.9799 26.5617C81.9799 26.6246 81.9169 26.8388 81.8287 27.0403C81.4257 27.9974 80.9849 29.7859 80.8338 30.9823C80.6449 32.6196 80.8842 33.539 81.6524 34.1435C82.3325 34.6725 84.0328 34.4962 84.8262 33.8161C84.9144 33.7405 85.1663 33.5516 85.4056 33.3753C85.6323 33.199 86.2494 32.6448 86.7658 32.1536C87.2821 31.6498 87.7481 31.2342 87.7985 31.2342C87.9119 31.2342 87.9119 31.2342 87.9497 32.3803C87.9874 33.3249 88.3023 33.9672 88.8564 34.2695C89.398 34.5466 90.6323 34.4962 91.3376 34.1435C91.9043 33.8665 93.6046 32.6322 93.8816 32.2922C93.9572 32.2166 94.1461 32.1032 94.3099 32.0529C94.5869 31.9647 94.5995 31.9899 94.524 32.3803C94.4358 32.8841 94.7255 33.9168 95.0277 34.2317C95.2041 34.3954 95.4685 34.4458 96.199 34.4332C97.0932 34.4332 97.2066 34.3954 98.0378 33.8917C99.3099 33.1108 100.317 32.2166 101.816 30.5919C102.811 29.5088 103.164 29.0932 103.403 28.7153C103.516 28.539 103.743 28.2619 103.894 28.0856C104.045 27.9093 104.36 27.4811 104.6 27.141C104.826 26.7884 105.116 26.3854 105.229 26.2216C105.431 25.9445 105.431 25.9445 104.977 25.9445C104.549 25.9445 104.474 26.0201 103.655 27.1032C102.584 28.5516 102.118 29.1058 101.312 29.9118C99.8514 31.3728 99.0202 31.801 98.592 31.2846C98.3401 30.9823 98.5794 30.466 100.532 27.2166C101.501 25.5919 102.395 24.0932 102.496 23.8917C102.61 23.6901 102.761 23.4383 102.824 23.3249C103.265 22.5944 103.605 22.0655 103.743 21.8513C103.819 21.7128 103.957 21.4609 104.033 21.2846C104.096 21.1209 104.196 20.9445 104.247 20.9068C104.297 20.869 104.474 20.5793 104.65 20.2393C104.814 19.9118 105.003 19.6473 105.053 19.6473C105.116 19.6473 105.154 19.5843 105.154 19.5088C105.154 19.4206 105.33 19.0806 105.532 18.7405C105.746 18.4131 105.909 18.0604 105.909 17.9723C105.909 17.8589 105.532 17.8337 104.385 17.8463C102.937 17.8841 102.836 17.8967 102.559 18.199C102.395 18.3753 102.219 18.5138 102.169 18.5138C102.118 18.5138 101.879 18.3123 101.64 18.073C101.073 17.4811 100.456 17.3299 99.4484 17.5063C99.0202 17.5944 98.6172 17.6952 98.5416 17.7582C98.4786 17.8085 98.2771 17.8967 98.1134 17.9471C97.9371 17.9974 97.7481 18.0856 97.6726 18.1486C97.597 18.2116 97.1688 18.5264 96.7406 18.8413C96.2998 19.1561 95.6826 19.6473 95.3552 19.937C94.7255 20.5289 92.5466 23.01 92.2066 23.5264C92.0932 23.7153 91.9421 23.9294 91.8665 24.005C91.8036 24.0806 91.665 24.2569 91.5769 24.3828C91.4887 24.5214 91.2242 24.8992 90.9723 25.2519C90.7204 25.5919 90.2544 26.272 89.9396 26.7632C89.6121 27.2418 89.3224 27.67 89.2847 27.7078C89.2343 27.7456 89.0706 27.9974 88.9068 28.2745C88.7431 28.5516 88.5668 28.8035 88.529 28.8413C88.4912 28.8791 88.1889 29.2443 87.8741 29.6599C86.4383 31.5365 85.3552 32.0781 84.7507 31.2342C84.5365 30.932 84.4862 30.7178 84.5365 30.3148C84.6247 29.471 84.8892 28.2871 85.0151 28.1612C85.0781 28.0856 85.1285 27.9219 85.1285 27.7959C85.1285 27.67 85.2041 27.3803 85.3048 27.1662C85.393 26.9395 85.5693 26.5113 85.6952 26.1964C86.1235 25.1133 86.8917 23.5516 86.9925 23.5516C87.131 23.5516 90.1411 21.3602 90.733 20.8186C90.8716 20.6927 91.325 20.3148 91.7406 19.9622C92.7104 19.1561 97.3703 14.534 98.0756 13.6901C98.6172 13.0226 99.0328 12.5315 99.524 11.9647C99.6751 11.7884 100.078 11.2972 100.406 10.8564L101.01 10.0755H100.569C100.191 10.0755 100.066 10.1637 99.461 10.9194C99.0957 11.3979 98.7431 11.8388 98.6675 11.9143C98.6046 11.9899 98.1512 12.5063 97.6726 13.0478C96.5643 14.3073 93.0504 17.8211 91.8036 18.9168C91.2872 19.3828 90.6575 19.9244 90.4182 20.1385C90.1789 20.3526 89.9396 20.5289 89.8892 20.5289C89.8388 20.5289 89.7255 20.6045 89.6247 20.7053C89.2721 21.0579 88.4912 21.5365 88.2771 21.5365C88.1008 21.5365 88.063 21.4609 88.1134 21.2468C88.1512 21.0957 88.2519 20.8816 88.3275 20.7808C88.4156 20.6801 88.6046 20.34 88.7557 20.0252C88.9194 19.7103 89.0957 19.3702 89.1587 19.2695C89.2217 19.1687 89.7381 18.2871 90.3048 17.3173C90.8842 16.3476 91.3879 15.5289 91.4509 15.5163C91.5013 15.4911 91.5517 15.4282 91.5517 15.3652C91.5517 15.277 91.9421 14.6473 92.5844 13.6775C92.7733 13.4005 93.6927 12.1158 94.4736 11.0201C96.6902 7.90928 100.519 3.84127 102.547 2.4181C103.302 1.88913 103.957 1.68762 104.222 1.90173C104.499 2.12843 104.322 3.02263 103.806 4.13095C103.567 4.64732 103.403 5.08812 103.441 5.12591C103.529 5.21407 104.398 4.9118 104.398 4.78586C104.398 4.72289 104.461 4.52137 104.549 4.31986C105.003 3.21155 105.141 2.6322 105.154 1.91432V1.12087L104.574 0.881575C103.907 0.591902 103.819 0.591902 102.887 0.86898V0.86898ZM80.8086 18.8791C81.2494 19.2443 81.5265 20.2267 81.3627 20.7934C81.2872 21.0453 81.2242 21.3476 81.2242 21.4609C81.2242 21.9017 80.1159 24.1687 79.801 24.3576C79.3602 24.6347 77.8615 23.5264 77.4459 22.5944C76.9673 21.5743 77.2318 20.6423 78.2897 19.6221C79.2469 18.6901 80.2418 18.4005 80.8086 18.8791ZM101.212 18.9672C101.791 19.1184 101.69 19.5718 100.708 21.1964C100.204 22.0403 99.7507 22.8211 99.7003 22.9219C99.6499 23.0226 99.5114 23.2619 99.3854 23.4508C99.2721 23.6398 98.7557 24.4836 98.2393 25.34C97.7229 26.1964 97.2695 26.9143 97.2192 26.9521C97.1814 26.9899 97.0051 27.2418 96.8413 27.5189C96.6776 27.7959 96.4761 28.0856 96.4005 28.1738C96.1738 28.4508 96.0227 28.6398 95.6826 29.1561C94.8514 30.3904 93.5794 31.4861 92.9622 31.4861C92.4459 31.4861 92.0051 30.9571 92.0932 30.4156C92.2695 29.3325 92.7104 28.3123 93.8187 26.3854C95.9471 22.6952 99.4358 18.8791 100.683 18.8917C100.821 18.8917 101.06 18.9294 101.212 18.9672V18.9672ZM77.0051 23.6524C77.4837 24.1687 78.0504 24.6221 78.4408 24.811C79.0706 25.1133 79.4106 25.6171 79.1209 25.806C79.0454 25.8438 78.8565 26.1209 78.6927 26.4105C77.1814 29.0176 74.6499 31.4861 73.4786 31.4861C73.3149 31.4861 72.9748 31.2846 72.7104 31.0453L72.2444 30.6045L72.3073 29.7103C72.3451 29.2191 72.4459 28.7531 72.5214 28.6775C72.597 28.602 72.66 28.4508 72.66 28.3375C72.66 28.0478 73.7935 25.8438 74.4232 24.9118C74.7255 24.471 75.1663 23.8161 75.4056 23.4508C75.6449 23.0982 75.9219 22.7959 76.0353 22.7959C76.136 22.7959 76.5643 23.1864 77.0051 23.6524V23.6524Z" fill="#603E94"/>
<path d="M111.388 1.9899C110.292 2.8841 109.045 3.76572 108.554 3.99242C108.453 4.0302 108.34 4.10577 108.302 4.15614C108.176 4.30728 105.519 5.54153 105.305 5.54153C105.242 5.54153 105.015 5.6297 104.826 5.73045C104.625 5.83121 104.322 5.91937 104.133 5.91937C103.957 5.91937 103.756 5.98234 103.693 6.04531C103.542 6.19645 101.69 6.42315 100.544 6.42315C99.7758 6.42315 99.7758 6.42315 99.1586 7.09065C98.0126 8.32491 97.471 8.96723 97.471 9.06798C97.471 9.39544 101.136 9.2569 102.509 8.86647C103.932 8.46345 106.287 7.35514 107.232 6.64985C108.642 5.60451 110.254 4.09317 111.199 2.94708C111.69 2.35514 112.358 1.37277 112.307 1.32239C112.282 1.2972 111.866 1.59947 111.388 1.9899ZM22.8488 8.90425C22.6473 8.92944 22.3702 9.04279 22.2317 9.14355C22.0931 9.2443 21.9042 9.31987 21.8161 9.31987C21.6649 9.31987 20.4181 10.0252 20.2669 10.2015C20.2292 10.2393 19.9647 10.4282 19.675 10.6171C19.146 10.9823 17.3576 12.6952 16.4256 13.7279C15.1536 15.1385 13.806 17.1662 13.0503 18.7783C12.1561 20.7053 12.0176 21.2594 12.0176 22.9849C12.0176 24.5466 12.1183 24.9244 12.7103 25.4156C13.0881 25.7305 13.9067 26.0705 14.272 26.0705C15.1788 26.0579 16.942 25.2015 18.1889 24.1813C19.0957 23.4383 21.6272 20.7682 22.0931 20.0881C22.3702 19.6725 22.6347 19.3073 22.6977 19.2947C22.7481 19.2695 22.7858 19.2065 22.7858 19.1435C22.7858 19.0428 23.5541 17.8211 23.7934 17.5441C23.8564 17.4559 23.9193 17.3551 23.9193 17.3174C23.9193 17.267 24.0705 17.0403 24.2468 16.8136C24.4987 16.4735 24.6876 16.3728 25.1536 16.2972C25.4811 16.2468 25.8463 16.1587 25.9722 16.0957C26.136 16.0201 26.2115 16.0327 26.2619 16.1839C26.3375 16.3854 26.1486 16.8514 25.607 17.7582C25.4685 17.9975 25.2292 18.5138 25.0654 18.8917C24.9143 19.2695 24.738 19.6977 24.675 19.8362C24.4105 20.3904 24.2594 21.2846 24.209 22.4559C24.1586 23.5012 24.1964 23.7783 24.3979 24.2191C24.7506 24.9748 25.4181 25.6171 25.9848 25.7682C26.1738 25.806 26.3501 25.8942 26.3879 25.9572C26.5012 26.1587 27.9874 26.0705 28.7178 25.8312C29.3853 25.6045 30.607 25.0252 30.8967 24.7985C30.9722 24.7481 31.5264 24.3199 32.1435 23.8665C32.7481 23.4131 33.4911 22.8085 33.7934 22.5063C34.4609 21.864 34.8387 21.6247 34.9395 21.7884C34.9773 21.8514 34.9395 22.0403 34.8639 22.1914C34.7632 22.3677 34.7002 23.0226 34.7002 23.8161C34.6876 25.3904 34.7758 25.5541 35.7833 25.8942C36.3123 26.0705 36.4886 26.0705 36.9924 25.9446C38.2392 25.6045 39.1712 25.0629 40.2544 24.0428C40.544 23.7783 40.8337 23.5516 40.8967 23.5516C41.0478 23.5516 41.1738 23.9924 41.1738 24.597C41.1738 25.2393 41.4634 25.6423 42.1057 25.8816C42.6095 26.0705 42.6977 26.0705 43.2644 25.8816C43.9319 25.6675 44.675 25.34 44.8765 25.1763C44.9521 25.1133 45.3551 24.8111 45.7707 24.4836C46.879 23.6398 48.9571 21.4483 50.3803 19.6473C51.073 18.7783 51.6901 18.01 51.7531 17.9219C51.9546 17.6826 51.9042 17.6322 51.4634 17.6322C51.073 17.6322 50.9345 17.7582 50.0151 18.8539C48.7682 20.3778 46.8035 22.3048 46.2241 22.5818C45.141 23.1108 44.7128 22.4685 45.3929 21.3476C45.5692 21.0705 45.7707 20.7053 45.8463 20.5289C45.9093 20.3652 46.0226 20.1889 46.073 20.1511C46.1234 20.1133 46.3123 19.8488 46.476 19.5592C46.6397 19.2821 47.068 18.5642 47.408 17.9975C47.7607 17.4181 48.1007 16.8514 48.1637 16.7254C48.2392 16.5995 49.2594 14.8866 50.4559 12.9219C51.6397 10.9446 52.5843 9.30728 52.534 9.26949C52.4962 9.23171 51.8035 9.19393 50.9974 9.19393C49.8513 9.19393 49.4861 9.23171 49.3602 9.38284C49.0705 9.73549 48.7808 9.72289 48.3652 9.33247C47.7607 8.76572 46.6397 8.67755 45.6448 9.13096C45.4433 9.23171 45.1788 9.33247 45.078 9.37025C44.146 9.7229 41.476 12.0403 40.204 13.602C40.0151 13.8413 39.7254 14.1813 39.5617 14.3577C39.3979 14.534 38.743 15.3526 38.1133 16.1839C36.3249 18.5516 35.4307 19.6095 34.0201 21.0453C31.2997 23.8035 29.5743 24.4206 28.4156 23.0604C28.1259 22.7204 28.0755 22.5315 28.0755 21.9269C28.0755 21.272 28.3778 20.0252 28.6926 19.3325C28.7682 19.1939 28.9571 18.7657 29.1334 18.3879C29.4861 17.6322 29.9899 16.6876 30.2418 16.335C30.3299 16.209 30.5188 15.9194 30.6574 15.6801C31.0604 15 31.6272 14.2065 32.1057 13.6776C33.4911 12.1284 35.2166 10.5793 35.5692 10.5793C35.6574 10.5793 35.7581 10.5038 35.7959 10.4156C35.8211 10.3274 36.0856 10.2645 36.476 10.2645C37.005 10.2645 37.1561 10.3148 37.3828 10.5793C37.8866 11.1964 37.6221 11.738 36.7279 11.8891C35.5692 12.1032 34.5365 13.9924 35.204 14.6599C35.7203 15.1763 36.7531 14.7229 37.4332 13.6901C38.1259 12.6196 38.2896 12.204 38.3652 11.2468C38.4533 10.2267 38.2518 9.74808 37.4962 9.19393C37.1309 8.91685 36.9546 8.89166 35.9471 8.89166C35.141 8.90425 34.7002 8.96723 34.4357 9.10577C34.2342 9.21912 34.0201 9.31987 33.9697 9.31987C33.869 9.31987 32.5843 10.0755 32.4836 10.2015C32.4458 10.2393 32.1057 10.5163 31.7279 10.8186C31.3501 11.1083 30.5314 11.8136 29.9143 12.3803C28.3274 13.8413 28.0251 14.1058 27.9244 14.1058C27.874 14.1058 27.7607 14.1939 27.6599 14.2821C27.3576 14.5844 25.8463 15.3652 25.5566 15.3652C25.2544 15.3652 25.078 15.0378 25.2921 14.8237C25.3677 14.7481 25.4307 14.6095 25.4307 14.5088C25.4307 14.408 25.5062 14.1561 25.607 13.942C26.1989 12.5566 26.3501 10.7682 25.9345 9.94959C25.5566 9.20652 25.0528 8.91685 24.0579 8.87907C23.6045 8.85388 23.0629 8.86647 22.8488 8.90425ZM24.612 10.3022C25.0151 10.5919 25.2292 11.1713 25.2166 11.9395C25.2166 12.3803 25.141 12.8085 25.0654 12.8841C24.9899 12.9597 24.9269 13.1234 24.9269 13.2619C24.9269 13.4886 24.5617 14.3954 24.2342 14.9874C23.7556 15.8438 21.942 15.1133 21.1863 13.7657C20.9974 13.4257 20.9722 12.6448 21.1486 12.5315C21.2241 12.4937 21.2745 12.3425 21.2745 12.2166C21.2745 11.9143 22.6725 10.4912 23.1637 10.2896C23.4408 10.1889 24.4609 10.1889 24.612 10.3022ZM48.1007 10.4534C48.4659 10.8186 48.4785 10.7934 47.5088 12.4055C47.4206 12.5441 47.2947 12.8085 47.2065 12.9975C47.1309 13.199 47.0302 13.3501 46.9672 13.3501C46.9168 13.3501 46.8413 13.4509 46.7909 13.5642C46.7531 13.6901 46.602 13.9546 46.4634 14.1687C46.3249 14.3703 46.1486 14.6977 46.073 14.8866C45.9974 15.0881 45.8841 15.2393 45.8211 15.2393C45.7581 15.2393 45.7078 15.3148 45.7078 15.403C45.7078 15.5038 45.544 15.8186 45.3299 16.0957C45.1284 16.3854 44.9521 16.675 44.9521 16.738C44.9521 16.801 44.8765 16.9395 44.7884 17.0277C44.7002 17.1158 44.3602 17.6448 44.0201 18.1864C43.6926 18.7405 43.2266 19.4458 42.9874 19.7607C42.7481 20.0755 42.4332 20.5038 42.2821 20.7179C42.1309 20.9194 41.5894 21.5113 41.0856 22.0025C40.267 22.8211 40.1032 22.9219 39.6876 22.9219C39.4357 22.9219 39.1586 22.8715 39.0831 22.8211C38.7934 22.6322 38.6297 22.141 38.7178 21.7002C38.806 21.2468 38.8312 21.1587 39.1964 20.4282C39.3098 20.1889 39.4105 19.9496 39.4105 19.874C39.4105 19.7985 39.6624 19.3199 39.9773 18.8035C40.2921 18.2997 40.544 17.8463 40.544 17.8211C40.544 17.7204 41.3501 16.5617 42.2947 15.3022C45.4559 11.0579 47.2317 9.58436 48.1007 10.4534ZM20.4936 14.597C20.7707 15.0378 21.8413 15.869 22.1435 15.869C22.345 15.869 23.2896 16.3854 23.2896 16.4861C23.2896 16.6121 22.8866 17.4307 22.7858 17.5063C22.7481 17.5441 22.5717 17.7959 22.408 18.073C22.2443 18.3501 22.0554 18.6272 22.005 18.7027C21.9546 18.7657 21.6523 19.1687 21.3501 19.5844C20.5692 20.6423 18.8186 22.2922 18.0881 22.6448C17.3576 23.01 16.9546 22.9471 16.4634 22.3803C15.8337 21.6876 15.9974 20.5793 17.0428 18.3879C17.5969 17.2166 19.3601 14.4458 19.7002 14.2065C19.9647 14.005 20.2166 14.131 20.4936 14.597ZM55.4181 9.50879C55.2921 9.64733 55.1536 9.84884 55.1032 9.94959C55.0654 10.0504 54.7758 10.5289 54.4735 11.0201C54.1586 11.4987 53.9571 11.9521 54.0075 12.0025C54.0579 12.0529 54.7254 12.0781 55.4685 12.0655L56.8413 12.0277L57.3828 11.2342C57.6851 10.7934 57.9244 10.4156 57.9244 10.3904C57.9244 10.3652 58.0629 10.1259 58.2392 9.87403C58.4156 9.62214 58.5163 9.37025 58.4911 9.31987C58.4534 9.2569 57.7984 9.21912 57.0302 9.23171C55.8211 9.24431 55.6196 9.28209 55.4181 9.50879Z" fill="#603E94"/>
</g>
</svg>
